ID,TIME,Symptom 1,Symptom 2,Symptom 3
Subject 0,76.49190521240234,1,1,1
Subject 0,78.26090240478516,1,1,1
Subject 0,79.82926940917969,1,1,1
Subject 0,82.67814636230469,1,1,0
Subject 0,84.61450958251953,1,1,1
Subject 0,85.51187133789062,1,1,0
Subject 0,88.03172302246094,1,1,0
Subject 0,89.89459991455078,1,1,1
Subject 0,91.61012268066406,1,1,1
Subject 1,55.76789855957031,0,0,0
Subject 1,56.92397689819336,0,0,0
Subject 1,58.66957092285156,0,0,0
Subject 1,61.4483757019043,0,1,0
Subject 1,64.41181182861328,1,0,0
Subject 1,66.7919692993164,1,1,0
Subject 1,67.79226684570312,1,1,0
Subject 1,69.78087615966797,1,1,1
Subject 2,64.71479797363281,1,1,1
Subject 2,66.28990173339844,1,1,0
Subject 2,68.15469360351562,1,1,1
Subject 2,71.08744812011719,1,1,1
Subject 2,72.81378936767578,1,1,0
Subject 3,71.21988677978516,1,0,0
Subject 3,73.49835205078125,1,1,0
Subject 3,75.90805053710938,1,1,1
Subject 3,77.90554809570312,1,1,0
Subject 4,64.59156799316406,1,1,1
Subject 4,66.14815521240234,1,1,1
Subject 4,67.17790222167969,1,1,1
Subject 5,73.18614959716797,0,0,0
Subject 5,74.00932312011719,0,0,0
Subject 5,74.66960906982422,1,0,1
Subject 5,75.98961639404297,0,1,0
Subject 6,53.82625198364258,0,0,0
Subject 6,55.27392578125,0,0,1
Subject 6,58.13101577758789,0,0,0
Subject 6,60.67863464355469,0,0,1
Subject 6,62.069541931152344,0,0,0
Subject 6,63.77440643310547,0,0,0
Subject 6,65.67158508300781,0,0,0
Subject 6,66.92552947998047,0,0,1
Subject 6,68.72158813476562,0,0,0
Subject 7,61.59324645996094,1,1,1
Subject 7,64.22257232666016,1,1,1
Subject 7,66.86445617675781,1,1,0
Subject 8,57.760589599609375,0,0,1
Subject 8,60.08717727661133,1,0,0
Subject 8,61.6018180847168,1,0,1
Subject 8,63.65359115600586,1,0,0
Subject 8,65.5375747680664,1,0,0
Subject 8,66.08587646484375,0,0,1
Subject 9,64.0653305053711,1,0,1
Subject 9,65.57098388671875,1,1,1
Subject 9,66.97354125976562,1,0,1
Subject 10,54.437808990478516,0,0,0
Subject 10,55.77731704711914,0,0,1
Subject 10,57.21786880493164,0,0,0
Subject 10,59.32067108154297,0,0,0
Subject 10,61.9136962890625,0,0,0
Subject 11,80.6656494140625,1,1,1
Subject 11,83.65777587890625,1,1,1
Subject 11,85.89359283447266,1,1,1
Subject 11,87.66779327392578,1,1,1
Subject 12,77.56547546386719,1,1,1
Subject 12,78.77656555175781,1,1,1
Subject 12,80.77253723144531,1,1,1
Subject 12,82.26567077636719,1,1,1
Subject 12,84.16366577148438,1,1,1
Subject 12,85.24624633789062,1,1,1
Subject 13,68.98921203613281,0,0,1
Subject 13,70.20331573486328,1,1,0
Subject 13,72.14425659179688,0,1,1
Subject 13,73.31980895996094,1,1,0
Subject 14,69.38346862792969,0,0,0
Subject 14,70.74707794189453,1,0,0
Subject 14,71.44317626953125,0,0,1
Subject 14,72.0430908203125,0,1,1
Subject 14,74.40763092041016,1,1,0
Subject 14,75.15782165527344,1,0,1
Subject 15,55.00749969482422,0,0,0
Subject 15,55.93576431274414,0,0,0
Subject 15,58.28727340698242,0,0,0
Subject 16,64.68444061279297,1,0,0
Subject 16,66.95028686523438,1,0,1
Subject 16,68.0128173828125,1,1,1
Subject 16,70.55084228515625,1,1,0
Subject 16,71.27743530273438,1,1,0
Subject 16,73.8281478881836,1,1,1
Subject 16,75.74049377441406,1,0,1
Subject 16,78.63764953613281,0,1,1
Subject 16,79.28677368164062,1,1,0
Subject 17,55.13527297973633,0,0,1
Subject 17,57.4339485168457,1,0,0
Subject 17,59.141212463378906,1,0,0
Subject 17,61.23888397216797,1,1,1
Subject 17,64.18067169189453,1,1,0
Subject 17,66.27970886230469,1,1,1
Subject 18,65.82459259033203,1,1,0
Subject 18,67.75200653076172,1,1,0
Subject 18,70.10315704345703,1,1,1
Subject 18,71.65290069580078,1,1,0
Subject 18,73.7823257446289,1,1,0
Subject 19,79.92549896240234,1,1,0
Subject 19,82.76123046875,1,1,1
Subject 19,83.8366470336914,1,1,1
Subject 19,85.39950561523438,1,1,1
Subject 19,87.30350494384766,1,1,1
Subject 19,88.58138275146484,1,1,1
Subject 19,89.12296295166016,1,1,1
Subject 19,91.66310119628906,1,1,1
Subject 20,71.41201782226562,0,0,0
Subject 20,73.98033905029297,1,1,1
Subject 20,74.57022094726562,1,1,0
Subject 20,75.24600219726562,1,1,1
Subject 20,76.49363708496094,1,1,1
Subject 20,79.18983459472656,1,1,1
Subject 20,81.04468536376953,1,1,1
Subject 20,81.80873107910156,1,1,1
Subject 21,77.55613708496094,1,1,0
Subject 21,78.18364715576172,1,1,1
Subject 21,80.56051635742188,1,1,1
Subject 21,82.10738372802734,1,1,1
Subject 21,82.6248550415039,1,1,1
Subject 21,84.55813598632812,1,1,1
Subject 21,86.15242767333984,1,1,1
Subject 21,87.96925354003906,1,1,1
Subject 22,61.53419494628906,0,0,1
Subject 22,62.57270431518555,0,0,1
Subject 22,64.36527252197266,0,0,0
Subject 22,64.95579528808594,1,1,0
Subject 22,66.66242980957031,1,1,1
Subject 23,70.97696685791016,1,1,1
Subject 23,72.3406982421875,1,1,1
Subject 23,73.9455337524414,1,1,1
Subject 23,74.44756317138672,1,1,1
Subject 23,75.60881042480469,1,1,1
Subject 23,77.15167236328125,1,1,1
Subject 24,68.33216094970703,0,0,0
Subject 24,69.0887680053711,0,0,0
Subject 24,69.88036346435547,0,0,1
Subject 24,71.8120346069336,0,0,0
Subject 24,72.34130096435547,0,0,0
Subject 24,73.45428466796875,0,0,0
Subject 24,74.47293853759766,0,0,1
Subject 24,75.80545043945312,0,0,0
Subject 24,77.05995178222656,0,0,0
Subject 25,73.92967224121094,0,0,0
Subject 25,76.66864013671875,1,0,0
Subject 25,78.98511505126953,0,0,0
Subject 25,80.19898986816406,1,1,1
Subject 25,82.79287719726562,1,1,1
Subject 25,84.51092529296875,1,1,0
Subject 25,86.67594909667969,1,1,1
Subject 25,87.3821029663086,1,1,1
Subject 26,78.70257568359375,1,1,1
Subject 26,80.4305419921875,1,1,1
Subject 26,81.31941986083984,1,1,1
Subject 26,82.89830780029297,1,1,0
Subject 26,85.08072662353516,1,1,1
Subject 26,86.61799621582031,1,1,1
Subject 27,53.031925201416016,0,1,1
Subject 27,55.58060073852539,1,1,1
Subject 27,57.01880645751953,1,0,1
Subject 28,54.51847457885742,0,0,0
Subject 28,56.00716018676758,0,0,0
Subject 28,58.489784240722656,0,0,0
Subject 28,59.67194747924805,0,0,0
Subject 28,61.71909713745117,0,0,1
Subject 28,63.24050521850586,1,0,1
Subject 28,65.19668579101562,0,1,1
Subject 28,68.01699829101562,1,1,0
Subject 28,69.37937927246094,1,1,1
Subject 29,76.13676452636719,1,1,1
Subject 29,77.01956939697266,1,1,1
Subject 29,79.73960876464844,1,1,1
Subject 29,80.42461395263672,1,1,1
Subject 29,83.07596588134766,1,1,1
Subject 29,85.0306167602539,1,1,1
Subject 30,70.72297668457031,1,1,0
Subject 30,73.06663513183594,1,1,0
Subject 30,74.5827865600586,1,1,1
Subject 30,77.2406997680664,1,1,1
Subject 30,77.86842346191406,1,1,0
Subject 30,78.97146606445312,1,1,1
Subject 30,80.56489562988281,1,1,1
Subject 31,66.97108459472656,1,1,1
Subject 31,68.6793212890625,1,1,1
Subject 31,71.472412109375,1,1,1
Subject 31,73.97269439697266,1,1,1
Subject 31,75.39196014404297,1,1,1
Subject 31,77.62742614746094,1,1,1
Subject 32,55.70238494873047,1,1,1
Subject 32,58.36441421508789,1,1,1
Subject 32,59.59173583984375,1,1,1
Subject 33,66.05604553222656,1,0,0
Subject 33,68.35845947265625,0,0,1
Subject 33,71.26317596435547,1,1,1
Subject 33,74.20581817626953,1,1,1
Subject 33,74.74211120605469,1,0,1
Subject 33,76.21295928955078,1,1,0
Subject 33,78.35694122314453,1,1,1
Subject 33,79.34428405761719,1,1,1
Subject 34,56.395198822021484,1,1,1
Subject 34,59.20398712158203,1,1,0
Subject 34,61.54486083984375,1,1,1
Subject 35,57.493839263916016,0,0,1
Subject 35,58.61626052856445,1,1,1
Subject 35,59.43339920043945,1,0,0
Subject 35,60.25205612182617,1,1,0
Subject 35,61.22477340698242,1,1,1
Subject 35,63.58218002319336,1,1,1
Subject 36,76.27022552490234,1,1,1
Subject 36,79.11943817138672,1,1,1
Subject 36,81.54739379882812,1,1,1
Subject 36,82.08277893066406,1,1,1
Subject 36,83.774658203125,1,1,1
Subject 36,86.46739959716797,1,1,1
Subject 37,56.08649444580078,0,0,0
Subject 37,56.62912368774414,1,0,0
Subject 37,58.21750259399414,0,0,0
Subject 37,59.535247802734375,0,1,0
Subject 37,60.414634704589844,0,0,1
Subject 37,62.106788635253906,1,1,0
Subject 38,74.41668701171875,0,0,0
Subject 38,75.47975158691406,0,0,0
Subject 38,78.12385559082031,0,0,0
Subject 38,79.5052719116211,1,0,0
Subject 38,80.4996337890625,0,0,1
Subject 38,81.8005142211914,1,1,1
Subject 39,57.71782684326172,0,0,1
Subject 39,58.33352279663086,0,0,0
Subject 39,60.66181182861328,0,0,0
Subject 39,62.935150146484375,0,0,1
Subject 39,64.6663589477539,0,1,1
Subject 39,66.4888916015625,1,0,1
Subject 39,68.34636688232422,0,0,0
Subject 39,69.242919921875,1,1,1
Subject 40,71.20317840576172,0,0,0
Subject 40,73.41332244873047,0,0,1
Subject 40,75.21682739257812,0,0,0
Subject 40,75.93510437011719,1,1,1
Subject 40,77.91458892822266,1,1,1
Subject 40,79.84444427490234,1,1,0
Subject 40,81.92256164550781,1,1,1
Subject 40,82.57300567626953,1,1,0
Subject 40,84.21185302734375,1,1,1
Subject 41,78.04732513427734,1,1,1
Subject 41,79.98815155029297,1,1,1
Subject 41,82.81391906738281,1,1,1
Subject 41,85.54322814941406,1,1,0
Subject 41,87.82987976074219,1,1,1
Subject 41,90.12495422363281,1,1,1
Subject 41,91.90608215332031,1,1,1
Subject 42,73.2352294921875,1,1,0
Subject 42,74.30684661865234,1,1,0
Subject 42,75.81127166748047,1,1,1
Subject 42,77.82708740234375,1,1,0
Subject 42,80.0860366821289,1,1,0
Subject 43,72.18531799316406,1,1,1
Subject 43,74.16812133789062,1,1,1
Subject 43,76.26675415039062,1,1,1
Subject 43,78.4308853149414,1,1,1
Subject 43,79.2649917602539,1,1,1
Subject 44,55.064701080322266,0,0,1
Subject 44,56.47056198120117,0,0,0
Subject 44,57.99216842651367,0,0,0
Subject 44,59.67259216308594,0,0,1
Subject 44,61.5146369934082,0,0,0
Subject 44,63.49878692626953,1,0,1
Subject 44,64.03209686279297,1,0,1
Subject 44,64.9865951538086,1,0,0
Subject 45,54.863800048828125,0,0,0
Subject 45,56.50449752807617,0,0,0
Subject 45,59.05956268310547,0,0,0
Subject 45,61.06433868408203,0,0,0
Subject 45,62.18952941894531,0,0,1
Subject 45,64.43177032470703,1,0,1
Subject 46,76.36573791503906,1,1,0
Subject 46,79.14591217041016,1,1,1
Subject 46,81.92996215820312,1,1,1
Subject 46,82.9158706665039,1,1,0
Subject 46,85.50800323486328,1,1,1
Subject 46,87.88126373291016,1,1,1
Subject 47,78.10802459716797,1,1,0
Subject 47,80.65772247314453,1,1,1
Subject 47,83.62684631347656,1,1,1
Subject 48,58.334625244140625,0,0,1
Subject 48,59.12058639526367,0,0,1
Subject 48,60.87340545654297,0,0,0
Subject 48,62.25959014892578,0,0,1
Subject 48,63.229530334472656,0,0,1
Subject 48,64.69996643066406,0,0,0
Subject 49,73.3636474609375,1,1,1
Subject 49,74.6322250366211,1,1,0
Subject 49,75.81430053710938,1,1,1
Subject 49,78.58942413330078,1,1,1
Subject 49,80.80049896240234,1,1,0
Subject 49,82.07073974609375,1,1,1
Subject 50,78.22344207763672,1,1,1
Subject 50,79.02115631103516,1,1,1
Subject 50,79.96832275390625,1,1,1
Subject 50,82.69330596923828,1,1,1
Subject 50,85.1723861694336,1,1,1
Subject 50,87.74674987792969,1,1,1
Subject 50,88.68186950683594,1,1,1
Subject 50,89.88798522949219,1,1,1
Subject 50,91.69473266601562,1,1,1
Subject 51,59.13108825683594,1,1,1
Subject 51,60.06035614013672,1,1,1
Subject 51,61.78425598144531,1,1,0
Subject 51,64.20587921142578,1,0,1
Subject 51,66.80899047851562,1,1,1
Subject 52,54.1141357421875,0,0,0
Subject 52,55.73872756958008,0,0,0
Subject 52,58.37144088745117,0,0,1
Subject 53,67.40483093261719,0,0,0
Subject 53,68.05842590332031,0,0,0
Subject 53,69.72801208496094,1,0,0
Subject 53,71.65962219238281,1,0,1
Subject 53,72.34127807617188,1,1,0
Subject 53,75.01748657226562,1,0,1
Subject 53,76.08126068115234,1,1,0
Subject 53,78.8758316040039,1,1,0
Subject 54,60.99431610107422,0,0,0
Subject 54,62.864479064941406,0,0,1
Subject 54,63.78541564941406,0,1,0
Subject 54,66.15338897705078,0,0,1
Subject 54,68.20419311523438,0,0,0
Subject 54,69.43272399902344,0,0,1
Subject 54,71.94344329833984,1,1,0
Subject 54,72.96070098876953,1,0,0
Subject 54,75.04739379882812,1,1,0
Subject 55,73.21528625488281,1,0,1
Subject 55,73.96771240234375,1,1,1
Subject 55,75.42698669433594,0,0,0
Subject 55,77.33079528808594,1,0,1
Subject 55,79.89918518066406,1,1,1
Subject 55,81.64673614501953,1,0,1
Subject 56,75.72807312011719,1,1,1
Subject 56,77.47936248779297,1,1,1
Subject 56,80.14768981933594,1,1,1
Subject 56,82.76020050048828,1,1,0
Subject 56,84.03500366210938,1,1,1
Subject 56,86.89054870605469,1,1,1
Subject 56,89.1259765625,1,1,0
Subject 57,53.62177276611328,0,0,0
Subject 57,55.64247131347656,1,0,0
Subject 57,57.04734802246094,0,0,0
Subject 58,70.3301773071289,1,0,1
Subject 58,71.59705352783203,1,1,0
Subject 58,73.73717498779297,1,1,1
Subject 58,76.38372039794922,1,1,1
Subject 58,79.03306579589844,1,1,1
Subject 58,80.54259490966797,1,1,0
Subject 58,82.28971099853516,1,1,0
Subject 58,83.30744171142578,1,1,1
Subject 58,84.80583953857422,1,1,1
Subject 59,69.10298156738281,0,0,0
Subject 59,69.97339630126953,0,0,1
Subject 59,71.6204833984375,0,0,1
Subject 59,72.48345184326172,0,1,0
Subject 60,52.5683479309082,0,0,0
Subject 60,55.366539001464844,0,0,0
Subject 60,55.98345184326172,0,0,0
Subject 60,57.66388702392578,0,0,0
Subject 60,58.50739669799805,0,0,0
Subject 60,60.39404296875,0,0,0
Subject 60,61.57452392578125,0,0,0
Subject 60,62.22737121582031,0,0,0
Subject 61,53.99011993408203,0,0,0
Subject 61,55.44867706298828,0,0,0
Subject 61,57.5994873046875,0,0,0
Subject 61,59.42478942871094,0,0,0
Subject 61,61.310035705566406,0,0,1
Subject 61,62.61875915527344,0,0,0
Subject 61,64.16630554199219,0,0,1
Subject 61,65.67648315429688,0,0,0
Subject 62,76.51275634765625,1,1,1
Subject 62,78.9197769165039,1,1,0
Subject 62,81.45563507080078,1,1,0
Subject 62,82.23661804199219,1,1,1
Subject 62,83.87615203857422,1,1,1
Subject 62,86.7745132446289,1,1,1
Subject 62,88.21142578125,1,1,1
Subject 63,61.1416015625,0,0,0
Subject 63,63.69916915893555,0,0,1
Subject 63,66.56393432617188,0,0,0
Subject 63,68.13552856445312,0,0,1
Subject 63,68.6674575805664,0,0,1
Subject 63,69.42131805419922,0,0,0
Subject 64,76.13245391845703,1,1,1
Subject 64,77.63813018798828,1,1,1
Subject 64,78.85659790039062,1,1,1
Subject 64,81.3056869506836,1,1,0
Subject 64,82.36924743652344,1,1,1
Subject 64,84.58540344238281,1,1,1
Subject 65,69.94625091552734,0,0,0
Subject 65,72.15116119384766,0,0,0
Subject 65,74.20925903320312,0,0,0
Subject 65,74.94048309326172,0,0,0
Subject 66,72.17193603515625,1,0,0
Subject 66,74.9639892578125,1,1,1
Subject 66,76.05960083007812,1,1,0
Subject 66,76.83805084228516,1,1,1
Subject 66,77.84073638916016,1,1,1
Subject 66,79.59326934814453,1,0,1
Subject 66,80.46434783935547,1,1,0
Subject 66,81.16679382324219,1,1,1
Subject 67,74.1284408569336,1,1,1
Subject 67,75.8844223022461,1,1,1
Subject 67,77.1307144165039,1,1,1
Subject 67,79.9293441772461,1,1,1
Subject 67,81.30663299560547,1,1,1
Subject 67,82.58936309814453,1,1,1
Subject 67,84.69827270507812,1,1,1
Subject 67,87.17050170898438,1,1,1
Subject 68,67.89903259277344,1,1,1
Subject 68,70.21582794189453,1,1,1
Subject 68,72.22225952148438,1,1,1
Subject 68,73.09883117675781,1,1,1
Subject 68,73.62012481689453,1,1,1
Subject 68,74.57769012451172,1,1,1
Subject 68,76.06685638427734,1,1,1
Subject 68,77.18916320800781,1,1,1
Subject 69,59.81612014770508,0,0,0
Subject 69,60.96928405761719,0,0,0
Subject 69,62.081817626953125,0,0,0
Subject 69,62.882591247558594,0,0,0
Subject 69,63.90314865112305,0,0,0
Subject 69,64.57806396484375,0,0,0
Subject 69,66.28395080566406,0,0,0
Subject 69,68.63008880615234,0,0,0
Subject 70,61.372135162353516,0,0,0
Subject 70,63.825889587402344,0,0,0
Subject 70,65.68962097167969,0,0,0
Subject 70,68.65669250488281,1,1,1
Subject 70,71.39291381835938,1,0,0
Subject 70,73.15084838867188,1,0,1
Subject 70,74.58967590332031,1,0,1
Subject 70,75.61614990234375,1,1,0
Subject 70,77.83845520019531,1,1,1
Subject 71,68.06455993652344,1,1,0
Subject 71,70.19312286376953,1,1,1
Subject 71,71.63613891601562,1,1,1
Subject 71,74.0245361328125,1,1,1
Subject 71,75.99519348144531,1,1,1
Subject 71,78.8192138671875,1,1,0
Subject 71,80.07525634765625,1,1,0
Subject 71,82.2136001586914,1,0,1
Subject 71,82.89051818847656,1,1,1
Subject 72,64.62275695800781,1,1,1
Subject 72,66.2057113647461,1,1,0
Subject 72,67.59556579589844,1,1,1
Subject 72,68.81973266601562,1,1,1
Subject 73,79.18363952636719,1,1,1
Subject 73,81.09651184082031,1,1,1
Subject 73,83.96067810058594,1,1,1
Subject 73,85.01025390625,1,1,1
Subject 73,87.27815246582031,1,1,1
Subject 73,88.49124145507812,1,1,1
Subject 73,90.53524017333984,1,1,1
Subject 73,91.30960845947266,1,1,1
Subject 74,57.37070846557617,1,0,0
Subject 74,58.221012115478516,0,0,1
Subject 74,61.03736114501953,0,0,0
Subject 74,62.15253448486328,1,0,1
Subject 74,64.1026840209961,1,1,1
Subject 74,65.73838806152344,1,1,1
Subject 74,66.75218200683594,1,1,1
Subject 74,69.37581634521484,1,1,1
Subject 74,70.80545806884766,1,1,1
Subject 75,53.882904052734375,0,0,0
Subject 75,56.49641418457031,0,0,1
Subject 75,59.27341079711914,0,0,0
Subject 75,59.85159683227539,0,0,1
Subject 76,71.00836181640625,1,1,1
Subject 76,72.71887969970703,1,1,1
Subject 76,74.49154663085938,1,1,1
Subject 76,77.43326568603516,1,1,1
Subject 76,79.06504821777344,1,1,1
Subject 76,81.21729278564453,1,1,1
Subject 76,82.72090148925781,1,1,1
Subject 76,84.31013488769531,1,1,1
Subject 77,58.23001480102539,0,0,0
Subject 77,60.96527862548828,0,0,0
Subject 77,63.18896484375,0,0,0
Subject 77,65.32687377929688,1,0,0
Subject 77,66.51106262207031,0,0,0
Subject 78,60.60246658325195,1,1,1
Subject 78,62.24808883666992,1,1,1
Subject 78,65.2222900390625,1,1,1
Subject 78,66.02954864501953,1,1,1
Subject 78,66.89702606201172,1,1,1
Subject 79,66.66238403320312,1,0,0
Subject 79,69.65247344970703,1,0,0
Subject 79,71.6090316772461,1,1,0
Subject 79,72.62236022949219,1,1,1
Subject 80,78.34185791015625,1,1,1
Subject 80,79.2816162109375,1,1,1
Subject 80,81.4333267211914,1,1,1
Subject 80,82.92194366455078,1,1,1
Subject 80,85.53516387939453,1,1,1
Subject 80,86.83700561523438,1,1,0
Subject 81,61.966331481933594,0,0,1
Subject 81,64.15431213378906,1,0,0
Subject 81,67.13355255126953,0,0,0
Subject 81,67.72773742675781,0,1,0
Subject 82,70.84150695800781,1,0,1
Subject 82,71.92185974121094,1,1,0
Subject 82,74.53294372558594,1,1,0
Subject 82,77.20892333984375,1,1,1
Subject 83,62.924285888671875,1,1,1
Subject 83,63.42945861816406,1,1,1
Subject 83,66.31634521484375,1,1,0
Subject 83,69.17817687988281,1,1,0
Subject 84,75.93817138671875,1,1,1
Subject 84,77.1864242553711,1,1,1
Subject 84,79.97396850585938,1,1,1
Subject 85,53.84476089477539,0,0,0
Subject 85,54.58436965942383,0,0,1
Subject 85,57.11426544189453,0,0,0
Subject 85,59.78086471557617,0,0,0
Subject 86,58.41442108154297,0,0,1
Subject 86,59.20030975341797,0,0,0
Subject 86,60.704063415527344,0,0,0
Subject 86,63.53020477294922,0,0,0
Subject 86,65.7297592163086,0,0,0
Subject 86,67.3925552368164,1,0,0
Subject 86,69.26215362548828,0,1,0
Subject 86,70.98881530761719,0,0,1
Subject 87,77.76951599121094,1,0,0
Subject 87,78.96785736083984,0,0,1
Subject 87,79.66194152832031,0,0,1
Subject 88,52.663002014160156,0,0,1
Subject 88,54.26675796508789,0,0,0
Subject 88,55.61863708496094,0,0,0
Subject 88,56.31979751586914,0,0,0
Subject 88,57.7066535949707,0,0,0
Subject 88,60.57925033569336,0,0,0
Subject 89,58.50375747680664,0,0,0
Subject 89,60.84642791748047,0,0,0
Subject 89,62.97057342529297,0,0,1
Subject 89,63.778594970703125,0,0,1
Subject 89,65.94184875488281,0,0,0
Subject 89,67.94549560546875,1,1,1
Subject 89,69.34339904785156,1,1,1
Subject 89,70.20829010009766,0,1,1
Subject 90,64.82423400878906,1,1,0
Subject 90,66.63446807861328,1,1,1
Subject 90,69.33182525634766,1,1,1
Subject 91,80.48916625976562,1,1,1
Subject 91,82.16450500488281,1,1,1
Subject 91,84.17909240722656,1,1,1
Subject 91,86.67633056640625,1,1,1
Subject 91,88.0681381225586,1,1,1
Subject 91,89.40990447998047,1,1,1
Subject 92,54.80117416381836,0,0,1
Subject 92,56.432193756103516,0,1,1
Subject 92,58.11711502075195,0,0,0
Subject 92,59.00187301635742,0,0,1
Subject 93,56.424461364746094,0,1,0
Subject 93,57.083465576171875,0,0,1
Subject 93,58.802001953125,1,1,0
Subject 93,60.309261322021484,1,0,1
Subject 93,61.91581344604492,1,1,0
Subject 93,62.96139144897461,1,1,1
Subject 94,54.84788513183594,0,0,1
Subject 94,55.73665237426758,0,0,1
Subject 94,58.370567321777344,0,0,1
Subject 94,61.12525177001953,0,0,0
Subject 95,77.21880340576172,0,0,1
Subject 95,80.09884643554688,0,0,1
Subject 95,82.11669921875,1,1,1
Subject 95,83.14478302001953,1,0,0
Subject 95,83.92664337158203,1,1,1
Subject 96,56.05809783935547,0,0,1
Subject 96,57.202842712402344,0,1,1
Subject 96,58.98984909057617,0,0,1
Subject 96,61.69728469848633,1,0,0
Subject 97,67.78186798095703,1,1,1
Subject 97,69.2613525390625,1,1,1
Subject 97,71.79103088378906,1,1,1
Subject 97,73.23771667480469,1,1,1
Subject 97,76.09347534179688,1,1,1
Subject 98,57.230995178222656,1,1,0
Subject 98,58.53260803222656,1,1,0
Subject 98,60.25636672973633,1,1,1
Subject 98,61.87111282348633,1,1,0
Subject 99,80.62702941894531,1,1,1
Subject 99,83.10078430175781,1,1,1
Subject 99,86.05517578125,1,1,1
Subject 100,78.31407928466797,1,1,1
Subject 100,80.89896392822266,1,1,1
Subject 100,83.64086151123047,1,1,1
Subject 100,86.2491683959961,1,1,1
Subject 100,87.45556640625,1,1,0
Subject 100,89.69989013671875,1,1,1
Subject 100,91.80870056152344,1,1,1
Subject 100,93.85270690917969,1,1,1
Subject 101,65.41939544677734,1,1,1
Subject 101,67.99028778076172,1,1,1
Subject 101,68.88621520996094,1,1,0
Subject 101,69.90508270263672,1,0,1
Subject 101,71.04843139648438,1,1,1
Subject 101,72.65003967285156,1,1,1
Subject 101,73.28782653808594,1,1,1
Subject 102,80.42546081542969,1,1,1
Subject 102,82.45549011230469,1,1,1
Subject 102,83.39765930175781,1,1,1
Subject 102,85.4347915649414,1,1,1
Subject 102,87.395751953125,1,1,1
Subject 102,88.48886108398438,1,1,1
Subject 102,90.49555206298828,1,1,1
Subject 102,92.88941955566406,1,1,1
Subject 103,62.4671630859375,0,0,0
Subject 103,64.2442398071289,0,0,0
Subject 103,65.48338317871094,0,0,0
Subject 103,66.93635559082031,0,0,0
Subject 103,67.9374008178711,0,0,0
Subject 103,70.1570816040039,0,0,0
Subject 103,71.95210266113281,1,0,1
Subject 103,72.81118774414062,1,1,0
Subject 103,74.32064819335938,1,1,0
Subject 104,67.77002716064453,1,1,1
Subject 104,69.94705963134766,1,1,1
Subject 104,70.46479797363281,1,1,1
Subject 105,81.31986999511719,1,1,1
Subject 105,83.90682220458984,1,1,1
Subject 105,85.45249938964844,1,1,1
Subject 105,86.6911849975586,1,1,0
Subject 105,88.14982604980469,1,1,1
Subject 105,90.68382263183594,1,1,1
Subject 105,93.40705108642578,1,1,1
Subject 105,95.4498291015625,1,1,1
Subject 106,67.9537582397461,0,0,1
Subject 106,70.5382080078125,0,0,0
Subject 106,72.39600372314453,1,0,0
Subject 106,73.72831726074219,0,0,0
Subject 106,75.59696197509766,0,0,0
Subject 107,53.32377243041992,1,1,0
Subject 107,55.448707580566406,1,1,0
Subject 107,57.25605010986328,1,1,1
Subject 107,59.62228012084961,1,1,1
Subject 107,61.70222854614258,1,1,1
Subject 107,62.21818923950195,1,1,1
Subject 107,65.00862121582031,1,1,1
Subject 108,75.66647338867188,1,1,0
Subject 108,78.61927795410156,1,1,1
Subject 108,80.5182113647461,1,1,1
Subject 109,71.42630004882812,1,1,1
Subject 109,72.71651458740234,1,1,1
Subject 109,74.23558807373047,1,1,1
Subject 109,75.57742309570312,1,1,1
Subject 109,76.25776672363281,1,1,1
Subject 110,56.155250549316406,1,1,0
Subject 110,58.49143600463867,1,1,1
Subject 110,59.838653564453125,1,1,1
Subject 110,61.16682815551758,1,1,1
Subject 110,63.14333724975586,1,1,1
Subject 110,64.19304656982422,1,1,1
Subject 110,65.25186157226562,1,1,0
Subject 111,70.84422302246094,1,1,1
Subject 111,71.71588897705078,1,1,1
Subject 111,72.7282485961914,1,1,1
Subject 111,75.62081146240234,1,1,1
Subject 111,77.43336486816406,1,1,1
Subject 111,80.32695007324219,1,1,1
Subject 112,75.65814971923828,1,1,1
Subject 112,77.18241882324219,1,1,0
Subject 112,78.63560485839844,1,1,1
Subject 112,81.13760375976562,1,1,1
Subject 112,82.06134796142578,1,1,0
Subject 113,60.773963928222656,0,0,0
Subject 113,61.44034957885742,0,0,0
Subject 113,64.32676696777344,0,0,0
Subject 113,66.06820678710938,0,0,0
Subject 113,68.116455078125,0,0,1
Subject 113,68.64761352539062,1,1,1
Subject 113,70.9375,1,1,1
Subject 114,66.16341400146484,1,0,1
Subject 114,68.1164321899414,1,1,1
Subject 114,69.64990997314453,1,1,0
Subject 114,70.5504379272461,1,1,1
Subject 114,72.8963394165039,1,1,1
Subject 114,74.14512634277344,1,1,0
Subject 115,77.64322662353516,1,1,1
Subject 115,79.86224365234375,1,1,1
Subject 115,81.99855041503906,1,1,1
Subject 115,83.9091567993164,1,1,1
Subject 115,84.57767486572266,1,1,1
Subject 115,85.42888641357422,1,1,1
Subject 115,86.65473937988281,1,1,1
Subject 115,88.5277099609375,1,1,1
Subject 116,62.76976013183594,0,0,0
Subject 116,65.64935302734375,0,0,0
Subject 116,66.91123962402344,0,0,0
Subject 116,69.74282836914062,0,0,0
Subject 116,70.81892395019531,0,0,1
Subject 117,78.40209197998047,1,1,1
Subject 117,80.41590881347656,1,1,1
Subject 117,82.90446472167969,1,1,1
Subject 117,85.5,1,1,1
Subject 117,87.85223388671875,1,1,1
Subject 117,89.27365112304688,1,1,1
Subject 118,64.99076080322266,1,1,1
Subject 118,66.2598876953125,1,1,1
Subject 118,67.40716552734375,1,1,0
Subject 118,68.72122192382812,1,1,1
Subject 118,69.28231048583984,1,1,1
Subject 118,70.86067962646484,1,1,0
Subject 118,71.40896606445312,1,1,1
Subject 118,72.26200103759766,1,1,1
Subject 119,68.57805633544922,0,1,0
Subject 119,71.34886169433594,0,0,1
Subject 119,72.14207458496094,1,0,1
Subject 119,74.64440155029297,0,0,1
Subject 119,76.95506286621094,1,0,0
Subject 120,55.013607025146484,0,0,0
Subject 120,56.87770080566406,0,0,0
Subject 120,58.89899826049805,0,0,0
Subject 121,65.60623931884766,1,1,1
Subject 121,66.12464904785156,1,1,1
Subject 121,66.85369110107422,1,1,1
Subject 121,68.4186019897461,1,1,1
Subject 121,69.38772583007812,1,1,1
Subject 121,69.97389221191406,1,1,1
Subject 121,71.30388641357422,1,1,1
Subject 121,73.25067138671875,1,1,1
Subject 121,74.323486328125,1,1,0
Subject 122,52.87308883666992,0,0,0
Subject 122,53.58461380004883,0,0,0
Subject 122,54.2226448059082,0,0,1
Subject 122,54.80733871459961,0,0,0
Subject 122,55.848976135253906,0,0,0
Subject 122,57.408836364746094,0,0,0
Subject 122,60.40296936035156,0,0,0
Subject 122,61.82223892211914,0,0,0
Subject 122,64.6374740600586,0,0,0
Subject 123,73.55349731445312,1,1,1
Subject 123,75.11365509033203,1,1,0
Subject 123,77.12665557861328,1,1,1
Subject 123,78.67222595214844,1,1,1
Subject 123,80.0902328491211,1,1,1
Subject 124,59.15557098388672,1,1,1
Subject 124,60.3995475769043,1,1,1
Subject 124,61.879638671875,1,1,1
Subject 124,64.0541000366211,1,1,1
Subject 124,65.01946258544922,1,1,1
Subject 125,78.70063018798828,1,1,1
Subject 125,79.6523208618164,1,1,1
Subject 125,80.59249114990234,1,1,1
Subject 125,81.81256866455078,1,1,1
Subject 125,83.51789855957031,1,1,1
Subject 125,84.02167510986328,1,1,1
Subject 125,85.98565673828125,1,1,1
Subject 126,65.58769226074219,0,0,0
Subject 126,68.48219299316406,1,1,0
Subject 126,69.72384643554688,1,1,1
Subject 126,70.6112060546875,1,0,0
Subject 126,71.30377960205078,1,1,0
Subject 126,73.38462829589844,0,1,1
Subject 126,75.4960708618164,1,1,0
Subject 126,78.06734466552734,1,1,1
Subject 127,71.952392578125,1,1,1
Subject 127,73.02239990234375,1,1,1
Subject 127,74.2428207397461,1,1,1
Subject 127,76.07247161865234,1,1,0
Subject 127,78.42506408691406,1,1,1
Subject 127,80.12684631347656,1,1,1
Subject 127,82.34638214111328,1,1,1
Subject 127,84.48141479492188,1,1,1
Subject 128,53.102603912353516,0,0,0
Subject 128,54.03715896606445,0,0,0
Subject 128,56.45568084716797,0,0,1
Subject 129,62.778629302978516,0,0,0
Subject 129,64.1257095336914,0,0,1
Subject 129,65.85588073730469,0,0,0
Subject 129,67.65215301513672,0,0,0
Subject 129,70.52941131591797,1,1,0
Subject 129,71.25756072998047,1,1,0
Subject 130,51.913238525390625,0,0,0
Subject 130,54.66836929321289,0,0,0
Subject 130,56.70832061767578,0,0,0
Subject 130,57.73086166381836,0,0,0
Subject 130,60.61351776123047,0,0,0
Subject 130,61.92216491699219,0,0,0
Subject 130,63.74802017211914,0,0,0
Subject 131,79.98140716552734,1,1,1
Subject 131,82.92882537841797,1,1,0
Subject 131,85.8155288696289,1,1,1
Subject 132,68.70093536376953,0,0,0
Subject 132,71.28392791748047,1,1,1
Subject 132,73.05729675292969,1,0,0
Subject 133,52.53105926513672,0,0,1
Subject 133,54.280479431152344,0,0,0
Subject 133,56.63915252685547,0,0,0
Subject 133,59.35000228881836,1,0,1
Subject 133,60.657440185546875,1,0,0
Subject 133,62.210044860839844,1,1,1
Subject 133,64.04159545898438,1,1,1
Subject 133,66.1179428100586,1,1,0
Subject 133,67.06639862060547,1,1,1
Subject 134,75.38934326171875,1,1,1
Subject 134,76.53219604492188,1,1,0
Subject 134,78.2250747680664,1,1,1
Subject 134,79.55730438232422,1,1,0
Subject 135,52.571598052978516,1,0,0
Subject 135,55.39052200317383,1,0,1
Subject 135,57.71800994873047,1,1,1
Subject 135,58.35456848144531,1,0,1
Subject 135,61.22035598754883,1,0,0
Subject 135,62.90540313720703,1,1,0
Subject 136,69.52033233642578,0,0,0
Subject 136,71.97832489013672,0,0,0
Subject 136,72.7409439086914,1,1,0
Subject 136,74.92825317382812,1,0,1
Subject 137,67.45927429199219,1,1,1
Subject 137,69.18428039550781,1,1,1
Subject 137,70.17617797851562,1,1,1
Subject 137,71.86445617675781,1,1,0
Subject 137,74.67900848388672,1,1,1
Subject 137,75.92892456054688,1,1,1
Subject 138,68.3271713256836,1,1,0
Subject 138,70.07757568359375,1,1,1
Subject 138,70.83769226074219,1,1,1
Subject 138,72.68355560302734,1,1,1
Subject 138,73.36422729492188,1,1,1
Subject 138,73.9119873046875,1,1,1
Subject 138,75.49409484863281,1,1,1
Subject 138,76.6866683959961,1,1,1
Subject 139,55.703819274902344,0,0,0
Subject 139,58.590370178222656,0,0,1
Subject 139,60.6724853515625,0,0,0
Subject 139,62.59063720703125,0,1,0
Subject 139,64.2303237915039,0,0,1
Subject 139,66.34870147705078,0,1,1
Subject 139,68.58100891113281,0,0,0
Subject 140,75.18988037109375,1,1,0
Subject 140,77.23165893554688,1,0,0
Subject 140,79.66448211669922,1,1,0
Subject 141,74.37700653076172,1,1,1
Subject 141,75.55099487304688,1,1,1
Subject 141,78.48574829101562,1,1,1
Subject 141,79.88333129882812,1,1,1
Subject 141,80.83285522460938,1,1,1
Subject 141,82.50287628173828,1,1,1
Subject 141,83.15203857421875,1,1,1
Subject 141,85.55892181396484,1,1,1
Subject 141,87.61087036132812,1,1,1
Subject 142,76.14861297607422,1,1,1
Subject 142,78.17149353027344,1,1,0
Subject 142,81.07855224609375,1,1,1
Subject 142,83.0489273071289,1,0,0
Subject 143,60.703887939453125,1,1,1
Subject 143,62.376373291015625,0,1,0
Subject 143,64.93003845214844,1,1,1
Subject 143,65.69491577148438,1,0,0
Subject 144,58.910850524902344,1,1,1
Subject 144,59.4869499206543,1,1,1
Subject 144,61.844024658203125,1,1,1
Subject 144,62.60595703125,1,1,0
Subject 145,78.54033660888672,1,1,1
Subject 145,79.9828872680664,1,1,1
Subject 145,82.3087158203125,1,1,0
Subject 146,52.75782012939453,0,0,0
Subject 146,55.520912170410156,0,0,0
Subject 146,57.14582443237305,0,0,0
Subject 146,57.85501480102539,0,0,1
Subject 146,59.70661163330078,0,0,0
Subject 146,61.87376403808594,0,0,0
Subject 146,64.84114074707031,1,0,1
Subject 146,67.82258605957031,1,0,1
Subject 146,70.11737823486328,1,1,1
Subject 147,62.692047119140625,0,1,0
Subject 147,63.893310546875,0,1,1
Subject 147,64.9860610961914,1,1,0
Subject 148,64.14197540283203,1,1,0
Subject 148,65.14955139160156,1,1,1
Subject 148,66.07182312011719,1,1,0
Subject 148,67.492919921875,1,1,0
Subject 148,70.11117553710938,1,1,1
Subject 148,71.42167663574219,1,1,1
Subject 148,74.34644317626953,1,1,0
Subject 148,76.89244842529297,1,1,0
Subject 148,77.80609130859375,1,1,1
Subject 149,70.35896301269531,1,0,0
Subject 149,71.12386322021484,1,0,1
Subject 149,73.00194549560547,1,1,0
Subject 149,75.67859649658203,1,0,1
Subject 150,66.17277526855469,0,1,1
Subject 150,67.87017059326172,0,0,1
Subject 150,69.14958953857422,0,0,1
Subject 150,70.2319564819336,1,1,1
Subject 150,72.20947265625,0,1,1
Subject 151,78.28050231933594,1,1,1
Subject 151,79.34443664550781,1,1,1
Subject 151,81.06702423095703,1,1,1
Subject 151,83.04031372070312,0,1,1
Subject 152,72.53807830810547,1,0,0
Subject 152,75.28036499023438,0,1,1
Subject 152,75.83564758300781,1,1,0
Subject 152,77.96394348144531,1,1,0
Subject 152,80.71206665039062,1,0,1
Subject 152,82.168701171875,1,1,1
Subject 152,84.76888275146484,1,1,1
Subject 152,85.72926330566406,1,1,0
Subject 153,52.88825225830078,0,0,0
Subject 153,54.483367919921875,0,0,0
Subject 153,56.914833068847656,0,0,0
Subject 153,58.01736831665039,0,0,0
Subject 153,60.915767669677734,0,0,1
Subject 153,62.50860595703125,0,0,0
Subject 153,65.39693450927734,0,0,1
Subject 153,68.08848571777344,0,0,0
Subject 153,69.54078674316406,1,0,0
Subject 154,52.66324234008789,0,0,0
Subject 154,54.050411224365234,1,0,1
Subject 154,56.01288604736328,0,0,1
Subject 154,58.80902099609375,1,1,1
Subject 154,59.540157318115234,1,1,0
Subject 154,60.1346321105957,1,0,1
Subject 155,58.99750900268555,1,0,1
Subject 155,60.40236282348633,1,1,1
Subject 155,61.342830657958984,1,1,0
Subject 155,63.043128967285156,1,1,0
Subject 155,63.56050109863281,1,1,1
Subject 155,64.43010711669922,1,1,0
Subject 155,66.23078918457031,1,1,1
Subject 155,66.99244689941406,1,1,1
Subject 155,68.31449127197266,1,1,1
Subject 156,60.77354049682617,1,1,1
Subject 156,63.31788635253906,1,1,1
Subject 156,65.4757080078125,1,1,0
Subject 157,54.30844497680664,1,1,1
Subject 157,55.59324645996094,1,1,1
Subject 157,56.594642639160156,1,1,1
Subject 158,75.73561096191406,1,1,1
Subject 158,78.61434936523438,1,1,1
Subject 158,80.08406066894531,1,1,1
Subject 158,83.06056213378906,1,1,1
Subject 158,85.27717590332031,1,1,1
Subject 158,85.88455963134766,1,1,1
Subject 158,86.44297790527344,1,1,1
Subject 158,87.05217742919922,1,1,1
Subject 159,70.87928009033203,1,0,1
Subject 159,72.83866119384766,1,1,1
Subject 159,74.44874572753906,1,1,1
Subject 159,75.39222717285156,1,1,1
Subject 159,76.6856460571289,1,1,1
Subject 159,77.30018615722656,1,1,0
Subject 159,79.77702331542969,1,1,0
Subject 159,81.02572631835938,1,1,1
Subject 159,83.94877624511719,1,1,1
Subject 160,75.54559326171875,1,1,1
Subject 160,76.38357543945312,1,1,1
Subject 160,76.96176147460938,1,1,1
Subject 160,79.61054992675781,1,1,1
Subject 160,82.4788589477539,1,1,1
Subject 160,83.48947143554688,1,1,1
Subject 160,84.06080627441406,1,1,1
Subject 160,85.60469818115234,1,1,1
Subject 161,60.361610412597656,0,0,0
Subject 161,62.66218185424805,0,0,1
Subject 161,63.518402099609375,0,0,0
Subject 161,66.11196899414062,0,0,1
Subject 161,69.0469741821289,0,0,0
Subject 162,72.6687240600586,1,1,1
Subject 162,74.39214324951172,1,1,0
Subject 162,77.317626953125,1,0,1
Subject 162,78.76244354248047,1,1,1
Subject 162,81.68678283691406,1,1,0
Subject 162,82.81578826904297,1,1,1
Subject 163,81.08472442626953,1,1,1
Subject 163,82.37294006347656,1,1,1
Subject 163,83.0523910522461,1,1,1
Subject 163,85.93900299072266,1,1,1
Subject 164,53.16619110107422,0,0,0
Subject 164,55.57267379760742,0,0,0
Subject 164,58.27976989746094,0,0,0
Subject 165,75.26555633544922,1,1,1
Subject 165,77.47140502929688,1,1,1
Subject 165,78.92105102539062,1,1,1
Subject 165,81.154541015625,1,1,1
Subject 165,81.95320129394531,1,1,1
Subject 165,83.48585510253906,1,1,1
Subject 165,85.78607940673828,1,1,1
Subject 165,86.69971466064453,1,1,1
Subject 166,56.043052673339844,0,0,0
Subject 166,59.0313835144043,0,0,0
Subject 166,61.03190612792969,0,0,0
Subject 166,61.69883346557617,0,0,0
Subject 166,63.77629089355469,0,0,1
Subject 166,66.38418579101562,0,0,1
Subject 166,67.01141357421875,0,0,0
Subject 166,69.78657531738281,1,0,0
Subject 166,72.00132751464844,1,1,0
Subject 167,80.4110336303711,1,1,1
Subject 167,81.10394287109375,1,1,1
Subject 167,82.96209716796875,1,1,0
Subject 168,70.7685775756836,1,1,1
Subject 168,71.69129943847656,1,1,1
Subject 168,73.97869110107422,1,1,1
Subject 168,75.95262145996094,1,1,1
Subject 168,76.60513305664062,1,1,1
Subject 168,78.45929718017578,1,1,1
Subject 168,81.20272064208984,1,1,1
Subject 169,63.091583251953125,1,1,1
Subject 169,64.1607437133789,1,1,1
Subject 169,66.45123291015625,1,1,1
Subject 169,68.12240600585938,1,1,1
Subject 169,70.37969207763672,1,1,1
Subject 170,63.85594940185547,0,0,1
Subject 170,66.85028076171875,1,0,1
Subject 170,67.650146484375,1,1,1
Subject 170,69.45780944824219,1,1,1
Subject 170,70.57769012451172,1,1,0
Subject 170,73.54568481445312,1,1,1
Subject 171,59.94285583496094,0,0,1
Subject 171,62.40967559814453,0,0,0
Subject 171,63.75406265258789,0,0,0
Subject 171,65.5238265991211,0,0,1
Subject 171,68.47071075439453,1,0,0
Subject 171,70.88229370117188,1,0,0
Subject 171,71.51858520507812,1,1,0
Subject 171,73.42041015625,1,1,0
Subject 171,76.26768493652344,1,1,1
Subject 172,69.64322662353516,1,1,1
Subject 172,71.22834777832031,1,1,1
Subject 172,74.0016860961914,1,1,1
Subject 172,75.02731323242188,1,1,1
Subject 173,76.22235107421875,1,1,1
Subject 173,77.84720611572266,1,1,1
Subject 173,79.83403015136719,1,1,0
Subject 173,80.8649673461914,1,1,1
Subject 173,81.39568328857422,1,1,0
Subject 173,83.05831909179688,1,1,1
Subject 173,85.88191223144531,1,1,1
Subject 173,86.68910217285156,1,1,1
Subject 173,87.9234390258789,1,1,1
Subject 174,52.559688568115234,0,0,0
Subject 174,53.58577346801758,0,0,0
Subject 174,54.460792541503906,0,0,0
Subject 174,56.53768539428711,0,0,1
Subject 174,58.858154296875,0,0,1
Subject 174,60.613155364990234,0,0,1
Subject 174,62.65452194213867,0,0,1
Subject 174,64.02325439453125,0,0,1
Subject 174,66.87763977050781,0,0,0
Subject 175,75.19978332519531,1,1,1
Subject 175,77.44445037841797,1,0,1
Subject 175,78.2933578491211,1,1,1
Subject 175,81.28947448730469,1,1,0
Subject 176,55.85728073120117,0,0,0
Subject 176,56.396305084228516,0,0,0
Subject 176,57.90158462524414,0,0,0
Subject 176,60.796669006347656,0,0,0
Subject 176,63.48130416870117,0,0,0
Subject 176,64.57727813720703,0,0,0
Subject 176,66.36505889892578,0,0,0
Subject 176,68.64601135253906,0,0,0
Subject 176,69.86595153808594,0,0,0
Subject 177,52.591609954833984,0,0,0
Subject 177,55.49890899658203,0,0,0
Subject 177,58.243080139160156,0,0,1
Subject 177,59.823631286621094,0,0,1
Subject 177,60.42664337158203,0,0,1
Subject 177,62.79197692871094,0,0,0
Subject 177,64.36089324951172,0,0,0
Subject 177,64.91455078125,1,0,0
Subject 178,79.048583984375,1,1,1
Subject 178,81.20225524902344,1,1,1
Subject 178,83.47026062011719,1,1,0
Subject 178,86.12212371826172,1,1,1
Subject 178,87.0970230102539,1,1,1
Subject 178,88.50321197509766,1,1,1
Subject 178,91.48320770263672,1,1,1
Subject 179,61.362300872802734,1,1,1
Subject 179,63.51275634765625,1,1,1
Subject 179,65.9281997680664,1,1,1
Subject 179,67.12908935546875,1,1,1
Subject 179,67.8851547241211,1,1,1
Subject 179,68.5475845336914,1,1,1
Subject 180,72.48030853271484,1,0,1
Subject 180,74.46293640136719,1,1,1
Subject 180,75.4952163696289,1,1,1
Subject 180,78.31156921386719,1,1,1
Subject 180,81.20503234863281,1,1,1
Subject 180,82.2454605102539,1,1,0
Subject 180,82.76956939697266,1,1,1
Subject 180,85.20211029052734,1,1,1
Subject 180,87.80741119384766,1,1,1
Subject 181,52.669803619384766,0,0,0
Subject 181,53.52091598510742,0,0,0
Subject 181,54.21376419067383,0,0,0
Subject 181,55.1255989074707,0,0,0
Subject 181,57.0471076965332,0,0,0
Subject 181,58.60132598876953,0,0,1
Subject 181,59.968223571777344,0,0,1
Subject 182,60.17036056518555,1,1,1
Subject 182,61.980167388916016,1,1,1
Subject 182,64.51797485351562,1,1,1
Subject 183,50.839385986328125,0,0,1
Subject 183,51.49995040893555,0,0,1
Subject 183,53.507476806640625,0,0,0
Subject 183,56.20008087158203,0,0,0
Subject 183,56.890098571777344,0,0,1
Subject 184,63.82803726196289,0,0,1
Subject 184,65.32659912109375,0,0,0
Subject 184,66.63961791992188,0,0,1
Subject 185,54.94489669799805,0,0,0
Subject 185,55.520851135253906,0,0,0
Subject 185,56.7645263671875,0,0,0
Subject 185,57.554264068603516,0,0,0
Subject 185,59.22557830810547,0,0,0
Subject 185,60.112831115722656,0,0,0
Subject 185,61.657196044921875,0,0,0
Subject 185,63.714141845703125,1,0,0
Subject 185,64.8899917602539,0,0,1
Subject 186,76.45539093017578,0,0,0
Subject 186,78.97570037841797,0,0,1
Subject 186,81.54122924804688,1,0,0
Subject 186,84.33679962158203,0,1,1
Subject 186,85.42459106445312,1,1,1
Subject 186,86.58338928222656,1,1,0
Subject 187,72.16311645507812,0,0,0
Subject 187,73.71429443359375,1,1,0
Subject 187,76.68277740478516,1,1,1
Subject 187,77.30225372314453,1,1,1
Subject 187,78.58244323730469,1,1,1
Subject 187,79.17997741699219,1,1,0
Subject 187,80.94444274902344,1,1,1
Subject 187,83.22645568847656,1,1,1
Subject 188,67.27323913574219,0,0,0
Subject 188,67.9103775024414,0,0,0
Subject 188,70.249755859375,0,0,0
Subject 188,72.72441101074219,0,0,0
Subject 189,54.745689392089844,1,1,1
Subject 189,56.72593688964844,1,1,0
Subject 189,58.163124084472656,1,1,0
Subject 190,68.22909545898438,1,1,1
Subject 190,69.54681396484375,1,1,0
Subject 190,71.21012878417969,1,1,0
Subject 191,53.594417572021484,0,0,0
Subject 191,55.0992546081543,0,0,0
Subject 191,57.223052978515625,0,0,1
Subject 191,58.12563705444336,0,0,0
Subject 191,58.966697692871094,0,0,0
Subject 191,59.92854309082031,0,0,1
Subject 191,61.92055892944336,0,1,0
Subject 191,63.17052459716797,0,1,1
Subject 191,65.89092254638672,0,0,1
Subject 192,58.25541687011719,0,0,0
Subject 192,60.283416748046875,0,0,0
Subject 192,60.788307189941406,0,0,0
Subject 192,61.575828552246094,0,0,1
Subject 193,67.15121459960938,0,0,0
Subject 193,69.01087951660156,0,0,0
Subject 193,71.63909912109375,0,0,0
Subject 193,73.44314575195312,0,0,0
Subject 193,74.90171813964844,1,0,0
Subject 193,76.97555541992188,0,1,0
Subject 193,78.94326782226562,1,1,1
Subject 193,79.99935913085938,1,1,1
Subject 194,72.37834167480469,1,1,1
Subject 194,75.06634521484375,1,1,1
Subject 194,77.2845230102539,1,1,1
Subject 194,79.75755310058594,1,1,1
Subject 194,81.94921875,1,1,0
Subject 194,84.51335144042969,1,1,1
Subject 195,65.58930206298828,0,0,0
Subject 195,67.07366943359375,1,0,0
Subject 195,69.81879425048828,1,0,0
Subject 195,71.26126861572266,1,1,1
Subject 195,73.75580596923828,1,1,0
Subject 195,75.361083984375,1,1,0
Subject 195,76.62078094482422,1,1,1
Subject 195,77.4949951171875,1,1,1
Subject 196,71.96038818359375,1,1,1
Subject 196,72.95336151123047,1,1,1
Subject 196,75.08399200439453,1,1,0
Subject 196,76.14129638671875,1,1,1
Subject 196,78.23290252685547,1,1,1
Subject 196,80.05301666259766,1,1,1
Subject 196,81.23055267333984,1,1,1
Subject 196,83.46839141845703,1,1,1
Subject 196,85.4870376586914,1,1,0
Subject 197,80.94160461425781,1,1,1
Subject 197,83.38491821289062,1,1,1
Subject 197,85.8274154663086,1,1,1
Subject 197,88.59984588623047,1,1,1
Subject 197,89.19313049316406,1,1,1
Subject 197,90.79733276367188,1,1,1
Subject 197,93.70056915283203,1,1,1
Subject 197,94.98577880859375,1,1,1
Subject 197,95.9718017578125,1,1,1
Subject 198,73.59668731689453,1,1,1
Subject 198,75.8466567993164,1,1,1
Subject 198,77.80619049072266,1,1,0
Subject 199,53.297157287597656,1,0,1
Subject 199,55.6390495300293,1,1,1
Subject 199,57.08989715576172,0,1,1
Subject 199,57.99663162231445,1,1,0
Subject 199,60.2694091796875,1,1,0
Subject 199,62.16667175292969,1,1,1
Subject 199,63.98949432373047,1,1,1
Subject 200,67.0840835571289,1,1,0
Subject 200,68.21382904052734,1,1,1
Subject 200,69.13546752929688,1,1,1
Subject 200,70.40865325927734,1,1,0
Subject 200,72.34431457519531,1,1,0
Subject 200,73.173095703125,1,1,0
Subject 200,74.04154968261719,1,1,1
Subject 200,75.8369369506836,1,1,1
Subject 201,73.99787139892578,1,1,1
Subject 201,74.76956176757812,1,1,1
Subject 201,77.71771240234375,1,1,0
Subject 201,80.68151092529297,1,1,1
Subject 201,82.29434204101562,1,1,1
Subject 201,83.31301879882812,1,1,0
Subject 201,84.31166076660156,1,1,1
Subject 202,72.42960357666016,1,1,0
Subject 202,73.99861907958984,1,1,1
Subject 202,76.09818267822266,1,1,1
Subject 202,77.27726745605469,1,0,1
Subject 202,78.19778442382812,1,1,0
Subject 202,80.67105865478516,1,1,1
Subject 202,81.70942687988281,1,1,1
Subject 203,72.10662841796875,1,1,1
Subject 203,73.98765563964844,1,1,0
Subject 203,76.82035064697266,1,1,0
Subject 203,78.36233520507812,1,1,0
Subject 204,61.58502197265625,1,1,1
Subject 204,62.62921142578125,1,1,1
Subject 204,65.56365966796875,1,1,1
Subject 204,67.87886047363281,1,1,1
Subject 204,69.7409439086914,1,1,1
Subject 204,70.4900894165039,1,1,1
Subject 204,71.98404693603516,1,1,1
Subject 204,74.24623107910156,1,1,1
Subject 205,53.18243408203125,0,0,0
Subject 205,54.935585021972656,0,0,0
Subject 205,56.22325897216797,0,0,0
Subject 205,57.31768798828125,0,0,0
Subject 205,58.42436218261719,0,0,0
Subject 205,60.00892639160156,0,0,0
Subject 206,77.37694549560547,0,0,1
Subject 206,79.32080078125,0,1,1
Subject 206,82.25679779052734,1,0,0
Subject 206,84.1183853149414,1,1,0
Subject 206,85.21305847167969,1,1,0
Subject 206,87.11419677734375,1,1,1
Subject 206,88.85214233398438,1,1,1
Subject 206,90.72354125976562,1,1,1
Subject 207,66.55934143066406,0,1,0
Subject 207,69.5329360961914,1,0,1
Subject 207,70.66094207763672,1,0,0
Subject 208,66.47381591796875,1,1,1
Subject 208,67.43537139892578,1,1,0
Subject 208,69.7148666381836,1,1,0
Subject 208,71.83198547363281,1,1,1
Subject 208,74.37054443359375,1,1,0
Subject 208,75.8065185546875,1,1,1
Subject 208,77.97425079345703,1,1,1
Subject 209,78.38243865966797,1,1,1
Subject 209,81.00878143310547,1,1,1
Subject 209,83.52711486816406,1,1,1
Subject 209,86.30787658691406,1,1,1
Subject 209,87.00450134277344,1,1,1
Subject 209,87.95361328125,1,1,1
Subject 210,65.19640350341797,1,1,0
Subject 210,66.42963409423828,1,1,0
Subject 210,68.6066665649414,1,1,1
Subject 211,62.309967041015625,1,1,1
Subject 211,64.39273834228516,1,1,1
Subject 211,67.21243286132812,1,1,1
Subject 211,69.0354995727539,1,1,1
Subject 211,71.00879669189453,1,1,0
Subject 212,73.01597595214844,1,1,1
Subject 212,74.91201782226562,1,1,1
Subject 212,77.74017333984375,1,1,0
Subject 212,78.5234375,1,1,0
Subject 212,80.6319580078125,1,1,1
Subject 212,83.5701675415039,1,1,0
Subject 212,84.72696685791016,1,1,1
Subject 212,86.4582748413086,1,1,1
Subject 213,65.38016510009766,1,1,1
Subject 213,66.02145385742188,1,1,0
Subject 213,68.34562683105469,1,1,0
Subject 213,70.77921295166016,1,1,1
Subject 214,66.7848129272461,1,1,1
Subject 214,67.85980224609375,1,1,1
Subject 214,70.82511138916016,1,1,1
Subject 214,72.35066223144531,1,1,1
Subject 214,72.9637451171875,1,1,0
Subject 214,75.43362426757812,1,1,0
Subject 214,77.06209564208984,1,1,1
Subject 214,77.91331481933594,1,1,1
Subject 214,79.5675277709961,1,1,1
Subject 215,68.43138885498047,0,0,1
Subject 215,71.07842254638672,0,1,1
Subject 215,71.83122253417969,1,1,1
Subject 215,73.15501403808594,1,1,1
Subject 215,75.11991119384766,1,1,1
Subject 215,77.68946075439453,1,1,1
Subject 215,79.27594757080078,1,1,1
Subject 215,80.16807556152344,1,1,1
Subject 216,68.16374206542969,1,1,1
Subject 216,69.52201843261719,1,1,1
Subject 216,70.2517318725586,1,1,1
Subject 216,72.46699523925781,1,1,1
Subject 216,73.69343566894531,1,1,1
Subject 216,75.54096984863281,1,1,1
Subject 216,76.2257080078125,1,1,1
Subject 217,73.86582946777344,0,0,1
Subject 217,74.41112518310547,1,0,0
Subject 217,75.285888671875,1,0,0
Subject 217,77.1365966796875,1,0,0
Subject 217,79.47747039794922,1,1,0
Subject 217,80.57329559326172,1,1,0
Subject 217,81.45889282226562,1,1,1
Subject 217,83.22584533691406,1,0,0
Subject 218,77.53996276855469,1,1,1
Subject 218,78.2786865234375,1,1,0
Subject 218,79.12931823730469,1,1,1
Subject 218,80.56501007080078,1,1,1
Subject 218,81.46868133544922,1,1,1
Subject 218,82.53187561035156,1,1,1
Subject 218,85.07695007324219,1,1,1
Subject 218,87.19416046142578,1,1,1
Subject 218,88.04817199707031,1,1,1
Subject 219,67.12547302246094,1,1,1
Subject 219,68.42243957519531,1,1,1
Subject 219,71.35235595703125,1,1,1
Subject 219,72.66703033447266,1,1,1
Subject 220,55.31575012207031,0,0,1
Subject 220,55.882877349853516,0,0,1
Subject 220,56.998924255371094,0,0,0
Subject 220,57.50727462768555,0,0,0
Subject 220,58.28105163574219,0,0,0
Subject 220,59.81434631347656,0,0,0
Subject 220,60.919960021972656,0,0,1
Subject 220,63.263832092285156,0,0,1
Subject 220,65.2839126586914,0,0,1
Subject 221,59.31397247314453,0,0,0
Subject 221,60.79597854614258,0,0,0
Subject 221,61.31869125366211,0,0,1
Subject 221,62.289363861083984,0,0,0
Subject 221,65.15845489501953,0,0,0
Subject 221,66.56273651123047,0,0,0
Subject 221,68.22383117675781,0,0,0
Subject 221,70.58479309082031,0,0,1
Subject 222,54.2587776184082,1,1,1
Subject 222,56.55888748168945,1,1,1
Subject 222,58.972896575927734,1,1,0
Subject 222,59.632423400878906,1,1,1
Subject 223,63.37641906738281,1,1,1
Subject 223,64.48461151123047,1,1,0
Subject 223,66.62174224853516,1,1,1
Subject 223,68.37977600097656,1,1,0
Subject 223,71.14653778076172,1,1,1
Subject 223,73.29344940185547,1,1,1
Subject 223,74.50389099121094,1,1,0
Subject 224,69.87296295166016,1,1,1
Subject 224,70.88587188720703,1,0,0
Subject 224,71.76322937011719,1,0,0
Subject 225,71.40375518798828,0,0,1
Subject 225,73.02635192871094,0,0,0
Subject 225,74.482421875,1,0,0
Subject 225,76.90814971923828,1,1,0
Subject 225,78.43226623535156,1,1,0
Subject 225,81.2530517578125,1,1,1
Subject 225,82.74322509765625,1,1,1
Subject 225,85.67779541015625,1,1,0
Subject 226,77.41520690917969,1,1,1
Subject 226,78.58821105957031,1,1,1
Subject 226,80.23678588867188,1,1,1
Subject 226,80.89623260498047,1,1,1
Subject 226,83.6238021850586,1,1,0
Subject 226,85.10009002685547,1,1,0
Subject 226,87.52947235107422,1,1,1
Subject 227,68.84833526611328,1,1,0
Subject 227,70.67996215820312,1,1,0
Subject 227,72.27305603027344,1,1,0
Subject 227,73.8583984375,1,1,1
Subject 227,75.56037902832031,1,1,1
Subject 227,78.06887817382812,1,1,0
Subject 227,78.80162048339844,1,1,0
Subject 227,80.08285522460938,1,1,0
Subject 228,79.1884765625,1,1,1
Subject 228,81.61470794677734,1,1,0
Subject 228,83.08133697509766,1,1,1
Subject 228,84.07662963867188,1,1,1
Subject 228,85.69627380371094,1,1,1
Subject 229,62.93681335449219,0,0,0
Subject 229,65.33174133300781,0,0,1
Subject 229,67.59162902832031,1,1,1
Subject 229,69.837646484375,1,1,0
Subject 229,72.33857727050781,1,1,0
Subject 229,73.414794921875,1,1,1
Subject 229,73.98771667480469,1,1,0
Subject 229,75.76547241210938,1,1,1
Subject 230,80.3883285522461,1,1,1
Subject 230,82.1744613647461,1,1,1
Subject 230,84.61312866210938,1,1,1
Subject 230,86.67113494873047,1,1,1
Subject 230,87.28579711914062,1,1,1
Subject 230,87.83236694335938,1,1,1
Subject 230,88.37458038330078,1,1,1
Subject 230,88.90776062011719,1,1,1
Subject 231,71.84049987792969,1,1,1
Subject 231,74.71668243408203,1,1,1
Subject 231,77.63006591796875,1,1,1
Subject 231,78.28089141845703,1,1,1
Subject 231,81.06405639648438,1,1,1
Subject 231,82.15574645996094,1,1,1
Subject 231,84.84577178955078,1,1,1
Subject 231,85.53612518310547,1,1,1
Subject 231,86.88845825195312,1,1,1
Subject 232,59.7847900390625,0,0,0
Subject 232,62.6646728515625,1,0,1
Subject 232,65.48484802246094,1,1,1
Subject 232,67.96945190429688,1,1,1
Subject 232,69.625,1,1,1
Subject 232,72.04354095458984,1,1,1
Subject 233,56.34953689575195,0,0,1
Subject 233,59.210655212402344,0,0,0
Subject 233,61.75092315673828,0,0,1
Subject 233,63.47642517089844,0,0,0
Subject 233,64.83900451660156,0,0,0
Subject 233,67.61273193359375,1,0,0
Subject 233,69.25753784179688,0,0,1
Subject 233,72.25665283203125,0,0,0
Subject 233,73.95777893066406,1,0,0
Subject 234,80.68700408935547,1,1,1
Subject 234,81.41268157958984,1,1,1
Subject 234,83.42251586914062,1,1,1
Subject 234,84.80723571777344,1,1,1
Subject 234,87.18746185302734,1,1,1
Subject 234,89.24154663085938,1,1,1
Subject 234,91.11956024169922,1,1,1
Subject 234,92.92546081542969,1,1,1
Subject 234,95.23515319824219,1,1,1
Subject 235,72.14575958251953,1,1,1
Subject 235,74.65809631347656,1,1,1
Subject 235,75.72509002685547,1,1,1
Subject 235,76.54814147949219,1,1,1
Subject 235,78.22589874267578,1,1,1
Subject 235,81.04175567626953,1,1,1
Subject 236,58.06283187866211,0,0,1
Subject 236,59.02215576171875,1,0,1
Subject 236,60.725990295410156,1,1,1
Subject 236,62.75553894042969,1,1,0
Subject 236,65.68006134033203,1,0,1
Subject 236,68.1261978149414,1,1,0
Subject 236,68.83749389648438,1,1,1
Subject 236,69.95115661621094,1,1,0
Subject 237,73.00357055664062,1,1,1
Subject 237,75.29824829101562,1,1,1
Subject 237,75.86466217041016,1,1,1
Subject 237,78.61865234375,1,1,0
Subject 237,79.32075500488281,1,1,1
Subject 238,59.49494171142578,1,1,1
Subject 238,61.043548583984375,1,1,1
Subject 238,64.01908874511719,1,1,1
Subject 239,80.25035858154297,0,1,0
Subject 239,82.350341796875,1,1,0
Subject 239,85.25093078613281,1,1,1
Subject 240,62.29621505737305,0,0,0
Subject 240,64.58768463134766,0,0,0
Subject 240,65.51260375976562,0,0,0
Subject 240,66.57603454589844,0,0,0
Subject 240,67.50687408447266,0,0,0
Subject 240,69.27416229248047,0,0,0
Subject 240,71.1168441772461,0,0,0
Subject 241,65.7234878540039,0,0,1
Subject 241,68.2894515991211,0,0,0
Subject 241,68.84766387939453,0,1,1
Subject 241,70.20972442626953,1,1,1
Subject 241,70.9380874633789,1,0,1
Subject 242,57.53351593017578,1,1,1
Subject 242,58.83230972290039,1,1,1
Subject 242,61.51212692260742,1,1,0
Subject 242,63.378910064697266,1,1,1
Subject 243,53.32857894897461,0,0,1
Subject 243,54.48040771484375,0,0,1
Subject 243,57.05780792236328,0,0,1
Subject 243,59.98174285888672,1,1,0
Subject 243,62.93201446533203,1,1,0
Subject 243,64.24874877929688,1,1,1
Subject 243,66.47244262695312,1,1,1
Subject 243,67.86209869384766,1,1,1
Subject 244,80.87126159667969,1,1,1
Subject 244,82.2957992553711,1,1,0
Subject 244,84.72694396972656,1,1,1
Subject 244,85.32550811767578,1,1,1
Subject 245,57.220558166503906,0,0,1
Subject 245,59.47102355957031,0,0,1
Subject 245,60.7948112487793,0,0,0
Subject 245,63.29648971557617,1,1,1
Subject 245,63.95006561279297,1,0,1
Subject 246,58.46957015991211,0,0,0
Subject 246,61.11488342285156,0,0,1
Subject 246,62.8896484375,0,0,1
Subject 247,63.548213958740234,1,0,0
Subject 247,64.30037689208984,1,1,0
Subject 247,66.36471557617188,1,1,0
Subject 247,67.72602844238281,1,1,1
Subject 247,69.8909912109375,1,1,0
Subject 247,70.62952423095703,1,1,1
Subject 248,51.60382843017578,1,1,1
Subject 248,53.20588684082031,1,0,1
Subject 248,55.22234344482422,1,1,1
Subject 248,57.22823715209961,1,1,1
Subject 248,58.26978302001953,1,1,1
Subject 249,54.773521423339844,0,0,0
Subject 249,56.342437744140625,0,0,0
Subject 249,57.26337814331055,0,0,0
Subject 249,59.291622161865234,0,0,1
