{
  "leaspy_version": "1.2.0",
  "name": "logistic",
  "features": [
    "Symptom 1",
    "Symptom 2",
    "Symptom 3"
  ],
  "dimension": 3,
  "source_dimension": 1,
  "noise_model": "bernoulli",
  "parameters": {
    "g": [
      -1.8606383800506592,
      0.4834291636943817,
      0.3889167308807373
    ],
    "v0": [
      -2.604027032852173,
      -2.218964099884033,
      -3.812500476837158
    ],
    "betas": [
      [
        0.13445085287094116
      ],
      [
        0.07931845635175705
      ]
    ],
    "tau_mean": 66.89615631103516,
    "tau_std": 0.05846339836716652,
    "xi_mean": 0.0,
    "xi_std": 0.04748278111219406,
    "sources_mean": 0.0,
    "sources_std": 1.0,
    "noise_std": 0.36383071541786194,
    "crossentropy": 683.83935546875,
    "mixing_matrix": [
      [
        -0.050466522574424744
      ],
      [
        0.12569159269332886
      ],
      [
        0.07760930061340332
      ]
    ]
  }
}