ID,TIME,MDS1_total,MDS2_total,MDS3_off_total,SCOPA_total,MOCA_total,PUTAMEN_R,PUTAMEN_L,CAUDATE_R,CAUDATE_L,AGD_total
GS-101,72.52275085449219,,0.3023685812950134,,0.7193176746368408,0.18463808298110962,0.2402210919531037,0.1979650628398841,0.1727465580920784,0.1789772930971042,0.2908983528614044
GS-102,78.57347106933594,0.20706555247306824,0.3560685217380524,0.3821453452110291,0.0,0.05598989129066467,0.2245567356293706,0.1787774881846468,0.1363042904406178,0.1234219373846003,0.420255184173584
GS-103,64.16062927246094,0.18328595161437988,0.37436336278915405,0.1052628457546234,0.6408389806747437,0.07180877774953842,0.2025891481711461,0.1693443255805073,0.0921101346307871,0.0745905646552757,0.0044461488723754
GS-104,74.0946273803711,,0.08069855719804764,0.24744205176830286,0.0,0.10291895270347595,0.2017577033260233,0.1699524608576242,0.1082394434481251,0.1406421661376953,0.1082631945610046
GS-105,63.59230041503906,,0.18497484922409055,,0.19147187471389773,0.14172495901584636,0.2199625757999778,0.2098702931068313,0.1373147108116928,0.1281834106888413,0.0480847656726837
GS-106,74.24465942382812,,0.3320580124855041,0.32550936937332153,0.2830994427204132,0.062224507331848034,0.2007981164845321,0.1514032715363122,0.1174180600107932,0.068035192952866,0.4675664305686951
GS-107,75.24690246582031,0.299487441778183,0.20306219160556796,0.22505156695842746,0.2581807672977448,0.07307466119527828,0.1884589802483771,0.1966984921218084,0.1078345211184754,0.1287214385921877,0.4713039696216583
GS-108,74.35189819335938,,0.11274144053459167,0.2368389815092087,0.810954749584198,0.08025678992271423,0.1788185601579599,0.1950651429628542,0.1328739093274486,0.1170219594598949,0.0
GS-109,72.41873931884766,0.22582983970642093,0.10310905426740646,0.22550171613693243,0.5997268557548523,0.05139278247952461,0.0987475819626059,0.169854183152248,0.0576662221733404,0.0660278633504382,0.3784295320510864
GS-110,80.00360107421875,0.2484085559844971,0.15185721218585968,0.3798894584178925,0.638102114200592,0.05276324599981308,0.2094518000574597,0.1781406279460925,0.075151311621374,0.0799539189907666,0.3587681651115417
GS-111,59.67485809326172,,0.22369492053985598,,0.2750967144966125,0.07185275852680217,0.1349541357950614,0.1440686681460886,0.0482442544431102,0.0954398917547626,0.3285980820655823
GS-112,60.25379943847656,0.2979237139225006,0.27278053760528564,0.260172575712204,0.1750132292509079,0.11356191337108612,0.2052419383787917,0.1773130468359575,0.1470766622193005,0.0934220573844224,0.2839259505271911
GS-113,73.97636413574219,0.2231864333152771,0.323393315076828,0.30822756886482244,0.0,0.07243350148200989,0.2208477926637787,0.1601653082270017,0.0837258107808171,0.0722920219900741,0.3498575687408447
GS-114,69.88475799560547,0.1917013972997665,0.19125452637672424,0.279912531375885,0.43733865022659296,0.08715776354074478,0.2341204526916585,0.1882479806461244,0.1281312528921633,0.1493853304177176,0.3924158215522766
GS-115,73.0030288696289,,0.03364887088537216,,0.0,0.06928221881389618,0.1836001150729509,0.1733351083988315,0.1303196678356248,0.112264728344733,0.0016356259584426
GS-116,63.8990364074707,0.10523499548435213,0.19056017696857447,0.3728567063808441,1.0,0.38556939363479603,0.2313580410729784,0.1938178528082762,0.1492509180185746,0.1450513237507063,0.4394250512123108
GS-117,66.22908020019531,0.13704879581928253,0.1739633083343506,0.1596563160419464,0.0,0.14897096157073975,0.1255277251430235,0.1458050102135385,0.0401857003873708,0.0581550590591672,0.2912038266658783
GS-118,87.31420135498047,,0.24575039744377136,,0.0,0.06343013048171997,0.1434423565544967,0.133365940599934,0.052057653178974,0.0370734249022341,0.3821169734001159
GS-119,78.63334655761719,0.2879359722137451,0.16580456495285034,0.3061888813972473,0.37467026710510254,0.0722983255982399,0.1710765559935378,0.1810840340287473,0.101712248276691,0.1068725535585107,0.3363188505172729
GS-120,47.39343643188477,,0.09527746587991713,,0.17358747124671936,0.06903249025344849,0.1269077644271441,0.0975166850246734,0.0533091135170994,0.0375298819295204,0.2423877567052841
GS-121,75.27116394042969,0.13380524516105652,0.08211977779865265,0.16784662008285522,0.05704930424690248,0.2392536550760268,0.209193997983958,0.1707554865331157,0.1147167288527196,0.0932349353053124,0.4561120867729187
GS-122,67.04106140136719,0.1604057252407074,0.08275086432695389,0.2568755149841309,0.23027949035167689,0.15524572134017944,0.2007456867688463,0.2015055787395423,0.144743639109086,0.1568324618757463,0.07062678784132
GS-123,69.82903289794922,0.13069573044776914,0.23615609109401706,0.31856849789619457,0.6610746383666991,0.09452445805072784,0.2097561033417648,0.1749085171121946,0.127136281071877,0.1045847674231846,0.3917072713375092
GS-124,69.33241271972656,0.14308491349220273,0.0835825502872467,0.2597324550151825,0.0,0.3103835880756378,0.1463991783898893,0.2083405664829021,0.1275142475050323,0.1650946349251736,0.2769587934017181
GS-125,81.31808471679688,0.4256390333175659,0.43026179075241094,0.4301064014434815,0.3467153608798981,0.2558020651340486,0.2291196389748008,0.219347809402036,0.1630771033617915,0.1895637577665141,0.4180713891983032
GS-126,59.929161071777344,0.5497825741767884,0.4606480896472931,0.4050844013690949,0.856143593788147,0.08394838869571697,0.2719272953575482,0.2370892018779342,0.1886728461907834,0.1876449287881821,0.1733697056770324
GS-127,84.03657531738281,0.1740170270204544,0.18519385159015656,0.25730815529823303,0.06542932987213135,0.10812348872423172,0.1694923188667195,0.1729946623385792,0.0767618047947786,0.0901930591498659,0.0
GS-128,66.64418029785156,0.473909705877304,0.4450097978115082,0.3511221706867218,0.3197658658027649,0.22863705456256866,0.2624613906359225,0.2370892018779342,0.1560730588679411,0.1974538014582117,0.0
GS-129,70.05851745605469,0.1344386637210846,0.08977361768484116,0.2117743194103241,0.23498332500457764,0.10191777348518372,0.2088700874880875,0.1752628569311939,0.1051975933872923,0.1051694845825968,0.2570036053657532
GS-130,64.24415588378906,0.05434094369411469,0.19645106792449954,0.36906853318214417,0.8644527792930603,0.2453688085079193,0.2019487897448501,0.1978264890366317,0.136199215966828,0.1407893461813519,0.3050930202007293
GS-131,54.90708541870117,,0.4621772170066834,0.27868494391441345,0.025704562664031986,0.19986054301261902,0.2643251304012841,0.1881327030244567,0.164678558524774,0.1523966049065434,0.4203912913799286
GS-132,56.4410514831543,,0.052578505128622055,0.1383145451545715,0.0,0.15588727593421936,0.1767932806193988,0.064601419117529,0.0771154063088553,0.0300243763133112,0.4266130924224853
GS-133,41.52128982543945,0.06809815764427184,0.09293700754642488,0.14134740829467773,0.2506839632987976,0.2682207226753236,0.1315253106902176,0.1652612535046859,0.0323371660344454,0.0309408937109813,0.2256157994270325
GS-134,73.1448974609375,0.03224630653858185,0.04998283833265305,0.18107157945632932,0.15245060622692108,0.13220426440238942,0.1361686163869044,0.0853952689909599,0.0801518980337648,0.03487375545401,0.3284140229225159
GS-135,78.09235382080078,0.3262307941913605,0.3059347271919251,0.5580098032951355,0.3179687261581421,0.4627552628517151,0.241334196709436,0.2068305541651909,0.1200083805590259,0.1438165949667393,0.3822769522666931
GS-136,65.85192108154297,0.28816804289817805,0.3313630819320679,0.3449011743068695,0.071461021900177,0.1708610951900481,0.2107969154940853,0.2150908624622184,0.1270290048754945,0.1444631322762027,0.3234512209892273
GS-137,67.88411712646484,,0.18388989567756653,0.2756158113479614,0.3972386121749878,0.1402355283498764,0.1731752946613301,0.1768948209117835,0.1286092213221958,0.1633478852486534,0.2204911708831787
GS-138,55.96635818481445,0.004177100956439971,0.13989044725894925,0.2519184947013855,0.1646329760551453,0.10214854776859295,0.2520056493160872,0.2239683446749834,0.1731889218700175,0.1736695340971256,0.4706532955169678
GS-139,51.59563064575195,,0.09068576991558076,,0.5697482824325562,0.07291334867477428,0.174731407344501,0.1403293721552746,0.0987799734485392,0.0192920753797231,0.4857857823371887
GS-140,42.84288787841797,0.0812806785106659,0.1528865098953247,0.3762138187885285,0.15570324659347534,0.04782375693321228,0.2257275594143701,0.2035380411595805,0.1778595053419774,0.1950013378227902,0.0
GS-141,81.22296905517578,0.2105500251054764,0.3864752650260925,0.3949081301689148,0.25606274604797363,0.3421535789966583,0.2297376097047616,0.1664322888907132,0.1515999005765331,0.0984343233682537,0.4516208171844482
GS-142,61.06194305419922,,0.8638407588005066,,1.0,0.3542906641960144,0.270756934986677,0.2074313018243637,0.2051487499353836,0.1915760785498614,0.2247924208641052
GS-143,52.43548583984375,0.20095595717430115,0.2043021023273468,0.16078826785087585,0.5713812708854675,0.06544811278581608,0.2639505000280631,0.2234058643170925,0.1273073464023823,0.1458083593857955,0.4963519573211671
GS-144,41.42111206054688,,0.0646611750125885,0.14078974723815918,0.4455572962760924,0.06355419009923935,0.1174918045626888,0.1589207744374521,0.0572395897641473,0.0313648388277515,0.3896867334842682
GS-145,69.98492431640625,0.19737425446510315,0.20795603096485135,0.43409633636474604,0.08408396691083908,0.1626238375902176,0.2293187312721886,0.1832192095232681,0.1199765346488174,0.1074900249493285,0.4441126585006714
GS-146,71.21825408935547,,0.12226742506027223,0.22625024616718292,0.0,0.45935726165771484,0.2190839426127579,0.1898063202978859,0.1579956249314911,0.1153783692477748,0.3220930099487304
GS-147,43.59974670410156,0.034568462520837784,0.0518430732190609,0.14241069555282593,0.0,0.0703984871506691,0.1661551618703888,0.1584133374299242,0.0698641606739589,0.0727004805990861,0.2093638479709624
GS-148,66.64823913574219,,0.18520545959472653,0.3296665847301483,0.2429069727659225,0.2642941474914551,0.1716280347859891,0.1982000254689248,0.0870987585612705,0.1385131285082324,0.3725806772708893
GS-149,75.45983123779297,0.22117610275745392,0.3362902402877808,0.19076356291770932,0.3561083972454071,0.08992081880569458,0.1921678273351838,0.1838397974139648,0.0860897249105025,0.0937439854067003,0.191978707909584
GS-150,58.86504745483398,,0.19999144971370694,,0.0,0.09496025741100311,0.2546980214822069,0.1644293909341516,0.1468172238797557,0.1084716637257915,0.4474855065345764
GS-151,76.9156723022461,0.3936149179935455,0.385356605052948,0.2621528208255768,0.4982755482196808,0.2848862409591675,0.2299591695974723,0.2000758088250675,0.1475740690620578,0.1842306966892391,0.3703872561454773
GS-152,84.05876922607422,0.21678104996681216,0.2382839918136597,0.4409062266349793,0.6965402364730835,0.09116070717573166,0.2429507769464488,0.1977060065023216,0.2097471023092464,0.1416431717031734,0.4410023987293243
GS-153,66.92942047119139,,0.3516755104064941,0.22872099280357364,0.4056827127933502,0.0,0.1991245682693359,0.1928569028075312,0.0806255724965309,0.1035792742007133,0.1388907432556152
GS-154,55.88257598876953,,0.3164655864238739,0.3609534800052643,0.36743378639221186,0.1336994767189027,0.2348514804891223,0.2017160279090415,0.1509177558276118,0.1393403427905492,0.2787081599235534
GS-155,72.81092071533203,,0.2239390313625336,,0.29506945610046387,0.29373803734779347,0.1862668716236349,0.1717394808648338,0.0937187301869295,0.1126445490304368,0.2967470288276672
GS-156,64.93392181396484,0.30789464712142944,0.27736303210258484,0.3421540856361389,0.5312926173210144,0.17202061414718628,0.2705652093759491,0.2096112087858674,0.1419913155691964,0.1377324524248036,0.2328057587146759
GS-157,67.11727142333984,0.3301970362663269,0.20869173109531405,0.20198523998260492,1.0,0.46665558218955994,0.253730045247014,0.1952128113715301,0.1652268482714283,0.1421630098046823,0.3979837894439697
GS-158,54.10757064819336,0.06037643551826478,0.35683372616767883,0.35852295160293574,0.4406531751155853,0.1185213029384613,0.2274354801740467,0.2018487671731223,0.111021277369285,0.1105095320543492,0.4400998950004577
GS-159,39.4946174621582,0.1603369414806366,0.16542436182498932,0.2689984142780304,0.17689883708953855,0.20000354945659637,0.2092287061041865,0.1830842875538857,0.1210817385692985,0.0868116442228194,0.3861299753189087
GS-160,83.96957397460938,0.23353660106658936,0.3311483561992645,0.4798843562602997,0.0,0.34628403186798096,0.2212609343490396,0.2004044179065686,0.1545272914730772,0.1577124832298335,0.2605229616165161
GS-161,57.40317916870117,,0.21898567676544192,0.2889682352542877,0.0,0.08533482998609543,0.220982150801385,0.1584950349700283,0.124903332943819,0.1109811829161115,0.0
GS-162,51.91222763061523,,0.38450026512146,,0.4271521270275116,0.06634259223937988,0.2517885477868865,0.1782498471613781,0.1731261666940183,0.1170014534479964,0.417455792427063
GS-163,66.69397735595703,0.31888389587402344,0.4041413366794586,0.1981801390647888,1.0,0.07955892384052266,0.2693909499344813,0.2289978153828724,0.1702185913008086,0.190236490908243,0.2803433537483215
GS-164,72.54485321044922,,0.20410960912704468,,0.0,0.17456816136837006,0.2517663358683241,0.2006613754890334,0.1493573183916053,0.1149753486971668,0.4120216369628906
GS-165,75.5946044921875,0.15784603357315066,0.15963828563690186,0.20198871195316312,0.33744722604751587,0.15059754252433777,0.2052976918923631,0.1912329700631155,0.1521422055302834,0.1629182156942462,0.1626231521368026
GS-166,66.92191314697266,0.24873612821102145,0.23938916623592374,0.2640044689178467,0.2572388350963592,0.07917125523090363,0.204382417029414,0.1082125146624068,0.1120452790844197,0.0753927034460629,0.4526983499526977
GS-167,69.677490234375,0.08273588120937347,0.1353529691696167,0.2966617941856384,0.16475515067577362,0.07171443104743958,0.2035441647905446,0.1217368085619429,0.0993102540775221,0.0485429887157307,0.3941161334514618
GS-168,67.30934906005861,,0.10318493843078612,0.07985876500606537,0.0,0.1848241537809372,0.2018707124541336,0.1794216940660432,0.1274854913049814,0.0991246546712067,0.2221960127353668
GS-169,68.67219543457031,0.3486678898334503,0.22954106330871585,0.11132051795721054,0.2333796620368957,0.0014332905411720276,0.1790220149400726,0.1785798414212437,0.1155650489184321,0.1095593068768381,0.1326205134391784
GS-170,51.17237854003906,0.20185258984565732,0.3151493668556213,0.22462251782417295,0.19293449819087982,0.03252846375107765,0.2211156460299249,0.1433445276788702,0.0931666452057507,0.009160956837937,0.4351870119571686
GS-171,69.34719085693361,0.12575553357601166,0.045580044388771064,0.6121323108673096,0.0,0.35736656188964844,0.2159661402970792,0.2016117477640859,0.1259709981023049,0.1637850321333662,0.3171683251857757
GS-172,74.9939956665039,0.12612642347812653,0.13755623996257782,0.2853193283081055,0.03383418917655945,0.06531672179698933,0.23429050969694,0.2193560645054204,0.1491795749080424,0.1480340987853037,0.180006742477417
GS-173,59.26673889160156,,0.08814601600170137,0.21087045967578885,0.0,0.07062280923128128,0.1498957498463485,0.1502693841155146,0.0405026541680705,0.0548265141443818,0.0801208019256591
GS-174,54.60799407958984,0.034036688506603234,0.15411806106567386,0.29214814305305487,0.10542641580104828,0.020270809531211853,0.1067377443927223,0.1505643571486495,0.030942274417196,0.050141384508441,0.1426887363195419
GS-175,50.309547424316406,0.06588991731405258,0.014542482793331146,0.15400198101997375,0.5736528038978577,0.04397399351000786,0.1990377500293721,0.1577232247786902,0.1308367442111579,0.0696588247353574,0.3191689252853393
GS-176,70.81188201904297,0.06444035470485687,0.0,0.21691296994686127,0.0,0.09465693682432175,0.1855611718052514,0.1457440483737999,0.0807675349469087,0.0548295541700868,0.1859563589096069
GS-177,78.68257904052734,,0.14346149563789368,,0.33457475900650024,0.17131410539150238,0.2301818320962123,0.1776383398844043,0.0893812454476648,0.1406215720091097,0.2865204215049744
GS-178,49.77383041381836,0.08499856293201448,0.08550401777029039,0.152540922164917,0.31244266033172613,0.10640589892864238,0.2256478841439009,0.1405381003455936,0.0866195858741293,0.0644343611808865,0.0050834566354751
GS-179,44.29331970214844,0.03022892028093338,0.14992655813694,0.19049379229545596,0.08459500968456267,0.05738159269094467,0.1685366470756224,0.1519792259019305,0.0649092569643137,0.1406991146937594,0.240629643201828
GS-180,57.026329040527344,0.11632983386516572,0.18915039300918576,0.3188179135322571,0.4744795560836792,0.08946702629327774,0.2245595960131279,0.1555486066800328,0.0930560177686263,0.1266005328741345,0.1604880839586258
GS-181,74.11585998535156,0.1933351159095764,0.07965842634439467,0.2275081276893616,0.0,0.05838947743177414,0.1862415276647573,0.1935512269606612,0.0994380269731794,0.1107220317393446,0.4322555661201477
GS-182,76.83806610107422,0.19428418576717374,0.4881598055362701,0.4236389398574829,0.4380078315734862,0.33371275663375854,0.2422572697135782,0.2170483853335671,0.1781339299922086,0.1222678227812334,0.4039089679718017
GS-183,75.41228485107422,0.19636696577072146,0.174342542886734,0.2575782239437103,0.0,0.0,0.2320029857011646,0.1671952983023415,0.1517120181297769,0.1264397702725661,0.0572906881570816
GS-184,80.44229888916016,,0.40596091747283936,0.2402314990758896,0.7553908824920654,0.09427081048488628,0.2315424319566414,0.2202025623948361,0.1440378714580925,0.1664446581001644,0.4203613400459289
GS-185,68.52449035644531,0.14158698916435242,0.14348928630352017,0.23190505802631375,0.8245669603347777,0.20354801416397095,0.1703567619937354,0.1649996087025029,0.0584415904113224,0.0851498075624202,0.2766942977905273
GS-186,70.07892608642578,0.24536094069480896,0.19513484835624692,0.24050617218017575,0.26118862628936773,0.13979096710681915,0.2255618329342185,0.2065024907600152,0.1628922073208555,0.1409673418892978,0.437687337398529
GS-187,56.83935165405274,0.21816705167293546,0.2623664140701294,0.2351537346839905,0.8691446185112,0.0,0.2236930115932434,0.1636127373422255,0.138169112984015,0.0885240850378115,0.3221808671951294
GS-188,73.39625549316406,0.43848279118537903,0.6234081387519836,0.5873768329620361,0.6421859264373779,0.24440041184425343,0.2272289732506064,0.2177740788795578,0.1395576822514436,0.1616230136867309,0.4943541288375855
GS-189,61.03921127319336,0.034123361110687256,0.003609444946050642,0.0375320091843605,0.0,0.0,0.1894608176745294,0.1586531411873902,0.0675997011515558,0.072602438196587,0.2330289483070373
GS-190,79.33026123046875,0.24989037215709692,0.5456100702285765,0.3175470232963562,0.049024671316146844,0.11248603463172901,0.2212423338647182,0.2141909302680145,0.1924468419989761,0.1856944785072785,0.4170394539833069
GS-191,67.94045257568361,0.10074763745069504,0.18856842815876007,0.2564421594142914,0.6536998152732849,0.06464952975511562,0.2443051926252349,0.1798116287714998,0.1340456271658138,0.176153895973278,0.1135464608669281
GS-192,84.0551528930664,0.27861180901527405,0.31464821100234985,0.16784797608852384,0.4358018338680267,0.2304048091173172,0.2055586579657751,0.1644607463353116,0.1117256704641848,0.1372848951829146,0.2190293371677398
GS-193,62.19863128662109,,0.039556417614221566,,0.16398142278194427,0.042904313653707615,0.2130566985613539,0.1355252517780787,0.1186764113757075,0.1001733943048978,0.3299644589424133
GS-194,65.0897216796875,0.5083554983139039,0.7056729793548584,0.673045814037323,0.6533737182617188,0.34914785623550415,0.261484114158569,0.2235594232317427,0.2001835735476747,0.2072338851477553,0.0
GS-195,72.81214904785156,0.0,0.11484090983867647,0.18181255459785461,0.19544360041618347,0.0645354986190797,0.2083802108151024,0.1763150328201867,0.1104443530647121,0.1446987437094151,0.1478670537471771
GS-196,68.75874328613281,0.18227854371070865,0.09990855306386948,0.11969965696334839,0.0,0.12709927558898937,0.2012786289961664,0.1758897550788843,0.1000018929948612,0.1069930657162208,0.0715653747320175
GS-197,77.11813354492188,0.265065997838974,0.11401008814573288,0.2490839064121247,0.6871685385704039,0.21714091300964355,0.1749221422077823,0.1663133594351755,0.0663013964283223,0.0900231827652316,0.3770406246185303
GS-198,69.20928955078125,,0.0885268896818161,0.12842971086502075,0.0,0.0,0.2307966707858579,0.1567502978821875,0.1081070420693378,0.0324714774189176,0.2708977162837982
GS-199,71.24673461914062,,0.08244216442108154,,0.20920711755752566,0.19188237190246582,0.2040900666336591,0.161962458225483,0.1051565574139964,0.0723496503034388,0.204822450876236
GS-200,69.87138366699219,0.008830945938825604,0.11400359869003295,0.2351739257574081,0.12239016592502597,0.10005778819322586,0.1776455791002943,0.1204864822083236,0.0877169560412971,0.0250808728156648,0.0
